…
``` r
day <- movies %>% group_by(thtr_rel_day) %>% summarise(movies = n_distinct(title), median = median(diff), mean = mean(diff), iqr = IQR(diff))
day
```

    ## # A tibble: 31 x 5
    ##    thtr_rel_day movies median   mean   iqr
    ##           <dbl>  <int>  <dbl>  <dbl> <dbl>
    ##  1            1     11   -1    -6     19  
    ##  2            2      7   -9    -9     27  
    ##  3            3      6   -7.5 -10.8   14.2
    ##  4            4      3   -9   -16.3   14  
    ##  5            5     13   -3    -4.54  19  
    ##  6            6     12    0    -3.42  23.8
    ##  7            7     12   -8.5  -8.75  15  
    ##  8            8      9   -3    -8.22  17  
    ##  9            9     11   -3    -6.91  33.5
    ## 10           10     14    0    -2.29  15.8
    ## # ... with 21 more rows
…
